{
  "images" : [
    {
      "filename" : "ic_customer_primary_48dp.png",
      "idiom" : "universal",
      "scale" : "1x"
    },
    {
      "filename" : "ic_customer_primary_48dp-1.png",
      "idiom" : "universal",
      "scale" : "2x"
    },
    {
      "filename" : "ic_customer_primary_48dp-2.png",
      "idiom" : "universal",
      "scale" : "3x"
    }
  ],
  "info" : {
    "author" : "xcode",
    "version" : 1
  }
}
